"CV","AMW","2516 HL COWL, 2516 HL COWL 5.83 SWB, 3116 HL COWL, 3116 HL,COWLEXT ROH","Diesel","LGL FF 100 L","100","Humraahi","18+18*"
"CV","AMW","2517 HL COWL, 2516 HL COWL 5.83 SWB, 3116 HL COWL, 3116 HL,COWLEXT ROH","Diesel","LGL FB TR100 L","100","Pradhan","18+6*"
"CV","AMW","2518 HL COWL, 2516 HL COWL 5.83 SWB, 3116 HL COWL, 3116 HL,COWLEXT ROH","Diesel","LGL F0 100 L","100","Power+","18+0"
"CV","AMW","2516 HL CAB, 2518 HL (6X2), 2518 HL(6X4) 6S, 2518HL (6X4) 9S CAB, 2518HL(6X4) 9S COWL, 2518CP (6X4) CH, 3118HL (8X4) Ch, 3118HL (8X2) Ch, 4923 TR, 4930 TR (6X4), 4023 TR, 2518 TRANSIT MIXER, 4018 TR, TIPPER, 2523.1618 TP COWL, 1618 TP CAB, 2518 TP E6 CAB, 2518 TP E9 CAB, 2518, TP9S BOGIE,2518 TP E9 (BELL CRANK), 2518 TP COWL, 2523 TP BOX, 2523, ROC, 2528 TP, 3118PP, 2518 TM6S8C, 2518 TM6S, 3118 TM, 2518 TP E6 COWL, (BELL CRANK), 2518 TP ZP,2518 TP ZP, H, 2523 TP CAB,2523 TP XL, 3118 SWB, CAB, 3518 TR, 4018 TR COWL, 2516 TP, 2518 BATCHING PLANT, 2518 CONCRETE PLANT, 2518 DRILLING RIG, 3123,CONCRETE PLANT","Diesel","LGL FB 130","130","Humraahi","18+6*"
"CV","ASHOK LEYLAND","DOST","Diesel/CNG","LGM FF 70D26 R","65","Pride","18+18*"
"CV","ASHOK LEYLAND","DOST","Diesel/CNG","LGM FB 65D26 R ,LGM FB 70D26 R","65","Primo","18+6*"
"CV","ASHOK LEYLAND","HAULAGE-CARGO 1614, COMET1611, BISON, COMET (4X4), COMET CG 1613, COMET SUPER 2518, TUSKER SUPER 1616, HIPPO, TAURUS (6X4), TAURUS (6X2), NGIC BOSS, COMET 1613, PARTNER","Diesel","LGL FF 80 R","80","Humraahi","18+18*"
"CV","ASHOK LEYLAND","HAULAGE-CARGO 1614, COMET1611, BISON, COMET (4X4), COMET CG 1613, COMET SUPER 2518, TUSKER SUPER 1616, HIPPO, TAURUS (6X4), TAURUS (6X2), NGIC BOSS, COMET 1613, PARTNER","Diesel","LGL FB TR80 R","80","Pradhan","18+6*"
"CV","ASHOK LEYLAND","HAULAGE-CARGO 1614, COMET1611, BISON, COMET (4X4), COMET CG 1613, COMET SUPER 2518, TUSKER SUPER 1616, HIPPO, TAURUS (6X4), TAURUS (6X2), NGIC BOSS, COMET 1613, PARTNER","Diesel","LGL F0 80 R","80","Power+","18+0"
"CV","ASHOK LEYLAND","CARGO (1614/1512) CARGO-759, CARGO 100.12, CARGO-909, HAULAGE (759/100.12/909)","Diesel","LGL FF 100 L","100","Humraahi","18+18*"
"CV","ASHOK LEYLAND","CARGO (1614/1512) CARGO-759, CARGO 100.12, CARGO-909, HAULAGE (759/100.12/909)","Diesel","LGL FB TR100 L","100","Pradhan","18+6*"
"CV","ASHOK LEYLAND","CARGO (1614/1512) CARGO-759, CARGO 100.12, CARGO-909, HAULAGE (759/100.12/909)","Diesel","LGL F0 100 L","100","Power+","18+0"
"CV","ASHOK LEYLAND","HAULAGE HIPPO, BEAVER, U-TRUCKS (U2518/U3518/U4019/U4923/U2323U3130) ICV-STAG, 8M-UNISTEP, 4935 TT (6X4) TRACTOR (G90/91)-WITH, CABIN, STALLION (4X4) [DEF], FAT (6X6),[DEF], HMV (6X6) [DEF], ALRD20-DUMPER/TIPPER, CFT (6X6), TRACTORHIPPO, RHINO, LRV (4X4) [DEF], YAK (4X4) [DEF], HEAVY HAULAGE TRACTORS, EXCAVATOR-IBH435, WHEEL LOADER-534","","LGL FB 130","130","Humraahi","18+6*"
"CV","ASHOK LEYLAND","LYNX, CHEETAH-AL, CHEETAH-HINO, VIKING-SUPER, VIKING-HINO, VIKING-AL, RESLF 6EE4, CRUISER-RE, PANTHER-RE, VESTIBULE, FPAG","","LGL FB 150","150","Humraahi","18+6*"
"CV","BHARAT BENZ","914 (4X2), 1214 (4X2)","Diesel","LGL FF 80 R","80","Humraahi","18+18*"
"CV","BHARAT BENZ","915 (4X2), 1214 (4X2)","Diesel","LGL FB TR80 R","80","Pradhan","18+6*"
"CV","BHARAT BENZ","916 (4X2), 1214 (4X2)","Diesel","LGL F0 80 R","80","Power+","18+0"
"CV","BHARAT BENZ","2523 (6X2)-HL, 3123 (8X2)-HL, 4928 (6X4)-TR, 4023 (4X2)-TR, 4028 (4X2)-TR","Diesel","LGL FB 130","130","Humraahi","18+6*"
"CV","CATERPILLAR","CAT-2021, 424B-LOADER","Diesel","LGL FB 150","150","Humraahi","18+6*"
"CV","CASE NEW
HOLLAND (L&T
CASE)","L&T VIBRATORY-COMPACTOR-VC-450","Diesel","LGL FF 100 L","100","Humraahi","18+18*"
"CV","CASE NEW
HOLLAND (L&T
CASE)","L&T VIBRATORY-COMPACTOR-VC-451","Diesel","LGL FB TR100 L","100","Pradhan","18+6*"
"CV","CASE NEW
HOLLAND (L&T
CASE)","L&T VIBRATORY-COMPACTOR-VC-452","Diesel","LGL F0 100 L","100","Power+","18+0"
"CV","CASE NEW
HOLLAND (L&T
CASE)","L&T LOADER-BACKHOE-LB-851, LB580-3, L&T-COMPACTOR-VC752, VC1107","Diesel","LGL FB 130","130","Humraahi","18+6*"
"CV","CLASS INDIA","HARVESTER COMBINES-CROP TIGER 30, CROP TIGER 30TT, CROP TIGER 40TT, CROP TIGER 40T","Diesel","LGL FF 100 L","100","Humraahi","18+18*"
"CV","CLASS INDIA","HARVESTER COMBINES-CROP TIGER 30, CROP TIGER 30TT, CROP TIGER 40TT, CROP TIGER 40T","Diesel","LGL FB TR100 L","100","Pradhan","18+6*"
"CV","CLASS INDIA","HARVESTER COMBINES-CROP TIGER 30, CROP TIGER 30TT, CROP TIGER 40TT, CROP TIGER 40T","Diesel","LGL F0 100 L","100","Power+","18+0"
"CV","CLASS INDIA","HARVESTER COMBINES-CT6","Diesel","LGL FB 150","150","Humraahi","18+6*"
"CV","ECEL","IF-10, 12, 15, HK17, RT20, 30, 40, TC770-Front End Loader","Diesel","LGL FB 150","150","Humraahi","18+6*"
"CV","FORCE MOTORS","TRAVELLER, TRUMP-40","Diesel/CNG","LGL FF 80 R","80","Humraahi","18+18*"
"CV","FORCE MOTORS","TRAVELLER, TRUMP-41","Diesel/CNG","LGL FB TR80 R","80","Pradhan","18+6*"
"CV","FORCE MOTORS","TRAVELLER, TRUMP-42","Diesel/CNG","LGL F0 80 R","80","Power+","18+0"
"CV","FORCE MOTORS","CITILINE MINI BUS","Diesel","LGL FF 100 L","100","Humraahi","18+18*"
"CV","FORCE MOTORS","CITILINE MINI BUS","Diesel","LGL FB TR100 L","100","Pradhan","18+6*"
"CV","FORCE MOTORS","CITILINE MINI BUS","Diesel","LGL F0 100 L","100","Power+","18+0"
"CV","GODREJ & BOYCE","GODREJ-GX-1.5, 2.0, 2.5, 3.0 D-TON","Diesel","LGM FF 105D31 L","85","Pride","18+18*"
"CV","GODREJ & BOYCE","GODREJ-GX-1.5, 2.0, 2.5, 3.0 D-TON","Diesel","LGM FF 105D31 L","85","Pride","18+18*"
"CV","GODREJ & BOYCE","GODREJ-GX-5.0, G-5.0, 6.0, 7.0, 8.0, 10.0-TON","Diesel","LGL FB 130","130","Humraahi","18+6*"
"CV","GREAVES COTTON","LTR (LIGHT TANDEM ROLLER)","Diesel","LGM FF 105D31 L","85","Pride","18+18*"
"CV","GREAVES COTTON","HTR (HEAVY TANDEM ROLLER)","Diesel","LGL FF 100 L","100","Humraahi","18+18*"
"CV","GREAVES COTTON","HTR (HEAVY TANDEM ROLLER)","Diesel","LGL FB TR100 L","100","Pradhan","18+6*"
"CV","GREAVES COTTON","HTR (HEAVY TANDEM ROLLER)","Diesel","LGL F0 100 L","100","Power+","18+0"
"CV","GREAVES COTTON","CONCRETE PUMP","Diesel","LGL FF TR90 L","90","Pradhan","18+18*"
"CV","GREAVES COTTON","CONCRETE PUMP","Diesel","LGL F0 TR90 L","90","Power+","18+0"
"CV","GREAVES COTTON","VIBRATORY COMPACTOR","Diesel","LGL FB 150","150","Humraahi","18+6*"
"CV","HINDUSTAN AGRO","HARVESTER 799, 999, 999DX, COMPACT","Diesel","LGL FF 100 L","100","Humraahi","18+18*"
"CV","HINDUSTAN AGRO","HARVESTER 799, 999, 999DX, COMPACT","Diesel","LGL FB TR100 L","100","Pradhan","18+6*"
"CV","HINDUSTAN AGRO","HARVESTER 799, 999, 999DX, COMPACT","Diesel","LGL F0 100 L","100","Power+","18+0"
"CV","HM","WINNER","CNG","LGM FF 70D26 L","65","Pride","18+18*"
"CV","HM","WINNER","CNG","LGM FB 65D26 L ,LGM FB 70D26 L","65","Primo","18+6*"
"CV","HM","WINNER-DAC","Diesel","LGL FF 80 R","80","Humraahi","18+18*"
"CV","HM","WINNER-DAC","Diesel","LGL FB TR80 R","80","Pradhan","18+6*"
"CV","HM","WINNER-DAC","Diesel","LGL F0 80 R","80","Power+","18+0"
"CV","INDO FARM
TRACTORS &
MOTORS","INDO POWER-9, 11, 18FN, 16FN, 15FN,16FNX, 14FNX, 12FNX, 20, 16, 12 & 14 SLOTTED, 12 & 14 STANDARD, 14 STANDARD2, 12 AV","Diesel","LGL FF 100 L","100","Humraahi","18+18*"
"CV","INDO FARM
TRACTORS &
MOTORS","INDO POWER-9, 11, 18FN, 16FN, 15FN,16FNX, 14FNX, 12FNX, 20, 16, 12 & 14 SLOTTED, 12 & 14 STANDARD, 14 STANDARD2, 12 AV","Diesel","LGL FB TR100 L","100","Pradhan","18+6*"
"CV","INDO FARM
TRACTORS &
MOTORS","INDO POWER-9, 11, 18FN, 16FN, 15FN,16FNX, 14FNX, 12FNX, 20, 16, 12 & 14 SLOTTED, 12 & 14 STANDARD, 14 STANDARD2, 12 AV","Diesel","LGL F0 100 L","100","Power+","18+0"
"CV","JCB","P99CRANE 1253 LIFT ALL","Diesel","LGL FF TR90 L","90","Pradhan","18+18*"
"CV","JCB","P99CRANE 1253 LIFT ALL","Diesel","LGL F0 TR90 L","","Power+","18+0"
"CV","JCB","EXCAVATOR-JS80, JS130, JS140, JS200, JS210, JS330, 430ZDX, 432ZDXL, 3DXL CRANES-LIFT ALL 1202,1553","Diesel","LGL FF 100 L","100","Humraahi","18+18*"
"CV","JCB","EXCAVATOR-JS80, JS130, JS140, JS200, JS210, JS330, 430ZDX, 432ZDXL, 3DXL CRANES-LIFT ALL 1202,1554","Diesel","LGL FB TR100 L","100","Pradhan","18+6*"
"CV","JCB","EXCAVATOR-JS80, JS130, JS140, JS200, JS210, JS330, 430ZDX, 432ZDXL, 3DXL CRANES-LIFT ALL 1202,1555","Diesel","LGL F0 100 L","100","Power+","18+0"
"CV","JCB","LOADER-3DX, 3DX SUPER, 3DX EXTRA, 4DX, EXCAVATORS-JS120, JS200, JS200HD, JS210LC.4D, 3D, JS205 COMPACTORS-VM115, VMT860","Diesel","LGL FB 130","130","Humraahi","18+6*"
"CV","JOHN DEERE","HARVESTER COMBINE-W50, W70","Diesel","LGL FB 130","130","Humraahi","18+6*"
"CV","KOBELCO CRANES","EXCAVATOR-SK210","Diesel","LGL FB 130","130","Humraahi","18+6*"
"CV","KOBELCO CRANES","SK140LC-8,SK210LC-8SUPER,
SK350LC-8 SUPER, SK480LC 8SUPER, SK850LC, EXCAVATOR-CKL-1000I","Diesel","LGL FB 150","150","Humraahi","18+6*"
"CV","KOMATSU","HD255-5","Diesel","LGL FB 150","150","Humraahi","18+6*"
"CV","M&M","GIO-0.5T, MAXXIMO-0.8 T","Diesel","LGM FF 70D26 L","65","Pride","18+18*"
"CV","M&M","GIO-0.5T, MAXXIMO-0.8 T","Diesel","LGM FB 65D26 L /
LGM FB 70D26 L","65","Primo","18+6*"
"CV","M&M","CAMPER, MAHINDRA PICK-UP CL500,
550MDI MM540, MM550, MM1ZS,
COMMANDER 650, MARSHALL
COMMANDER 7505, MAXX, XYLO PICKUP,
BOLERO CAMPER PICK-UP CL500,
550MDI MM540, MM550, MM IZS, ARMY
RANGE 550XD, MAXX LX","Diesel","LGM FF 70D26 R","65","Pride","18+18*"
"CV","M&M","CAMPER, MAHINDRA PICK-UP CL500,
550MDI MM540, MM550, MM1ZS,
COMMANDER 650, MARSHALL
COMMANDER 7505, MAXX, XYLO PICKUP,
BOLERO CAMPER PICK-UP CL500,
550MDI MM540, MM550, MM IZS, ARMY
RANGE 550XD, MAXX LX","Diesel","LGM FB 65D26 R /
LGM FB 70D26 R","65","Primo","18+6*"
"CV","M&M NAVISTAR","LOAD KING ZOOM, DI3200CRX,
TOURISTER CRDe","Diesel","LGM FF 70D26 R","65","Pride","18+18*"
"CV","M&M NAVISTAR","LOAD KING ZOOM, DI3200CRX,
TOURISTER CRDe","Diesel","LGM FB 65D26 R /
LGM FB 70D26 R","65","Primo","18+6*"
"CV","M&M NAVISTAR","TOURISTER, T-15W, VIKRANT,
SHERPA-T25 LOAD CARRIER, T-33,T-42 TR, T-25 CNG BUSES, LOAD KING CNG, AMBULANCE-BS111, MEDICAL MOBILE VAN BS111, LOAD KING-TP","Diesel/CNG","LGL FF 80 R","80","Humraahi","18+18*"
"CV","M&M NAVISTAR","TOURISTER, T-15W, VIKRANT,
SHERPA-T25 LOAD CARRIER, T-33,T-42 TR, T-25 CNG BUSES, LOAD KING CNG, AMBULANCE-BS111, MEDICAL MOBILE VAN BS111, LOAD KING-TP","Diesel/CNG","LGL FB TR80 R","80","Pradhan","18+6*"
"CV","M&M NAVISTAR","TOURISTER, T-15W, VIKRANT,
SHERPA-T25 LOAD CARRIER, T-33,T-42 TR, T-25 CNG BUSES, LOAD KING CNG, AMBULANCE-BS111, MEDICAL MOBILE VAN BS111, LOAD KING-TP","Diesel/CNG","LGL F0 80 R","80","Power+","18+0"
"CV","M&M NAVISTAR","TRUXO25, TRUXO31-BULKER,
TORRO259S BOGIE, 40T, 49T, TOURISTER CRDe, TOURISTER COSMO, TOURISTER SCHOOL BUS, TORRO25-TP, TRACO35-TR, TRACO35-
Tanker, TORRO31-TP, TORRO25-TM","Diesel","LGL FF 100 L","100","Humraahi","18+18*"
"CV","M&M NAVISTAR","TRUXO25, TRUXO31-BULKER,
TORRO259S BOGIE, 40T, 49T, TOURISTER CRDe, TOURISTER COSMO, TOURISTER SCHOOL BUS, TORRO25-TP, TRACO35-TR, TRACO35-
Tanker, TORRO31-TP, TORRO25-TM","Diesel","LGL FB TR100 L","100","Pradhan","18+6*"
"CV","M&M NAVISTAR","TRUXO25, TRUXO31-BULKER,
TORRO259S BOGIE, 40T, 49T, TOURISTER CRDe, TOURISTER COSMO, TOURISTER SCHOOL BUS, TORRO25-TP, TRACO35-TR, TRACO35-
Tanker, TORRO31-TP, TORRO25-TM","Diesel","LGL F0 100 L","100","Power+","18+0"
"CV","MAN 
TRUCK","T-15W, VIKRANTH, T-25, T-33, T-42 TR, T-25 CNG BUSES, LOAD KING CNG","Diesel/CNG","LGL FF 80 R","80","Humraahi","18+18*"
"CV","MAN 
TRUCK","T-15W, VIKRANTH, T-25, T-33, T-42 TR, T-25 CNG BUSES, LOAD KING CNG","Diesel/CNG","LGL FB TR80 R","80","Pradhan","18+6*"
"CV","MAN 
TRUCK","T-15W, VIKRANTH, T-25, T-33, T-42 TR, T-25 CNG BUSES, LOAD KING CNG","Diesel/CNG","LGL F0 80 R","80","Power+","18+0"
"CV","MAN 
TRUCK","CLA 49L28","Diesel","LGL FF 100 L","100","Humraahi","18+18*"
"CV","MAN 
TRUCK","CLA 49L29","Diesel","LGL FB TR100 L","100","Pradhan","18+6*"
"CV","MAN 
TRUCK","CLA 49L30","Diesel","LGL F0 100 L","100","Power+","18+0"
"CV","MAN 
TRUCK","MAN-CLA16L180, CLA25.180, CLA40L18","Diesel","LGL FB 130","130","Humraahi","18+6*"
"CV","PIAGGIO VEHICLES
PVT. LTD","APE TRUK-1 CYL, APE TRUK 2 CYL","Diesel","LGM HH DIN55","55","Zing","24+24*"
"CV","PIAGGIO VEHICLES
PVT. LTD","APE TRUCK-801","Diesel","LGM FF 70D26 R","65","Pride","18+18*"
"CV","PIAGGIO VEHICLES
PVT. LTD","APE TRUCK-802","Diesel","LGM FB 65D26 R /
LGM FB 70D26 R","65","Primo","18+6*"
"CV","SAWARAJ MAZDA","SWARAJ SUPER ZT54, SWARAJ
PRESTIGE WT 490, 50STD, SWARAJ
PREMIUM WT49ESA, SWARAJ DUAL CAB,
SWARAJ COSMO, SWARAJ SARTAJ WV26-S","Diesel","LGL FF 80 R","80","Humraahi","18+18*"
"CV","SAWARAJ MAZDA","SWARAJ SUPER ZT54, SWARAJ
PRESTIGE WT 490, 50STD, SWARAJ
PREMIUM WT49ESA, SWARAJ DUAL CAB,
SWARAJ COSMO, SWARAJ SARTAJ WV26-S","Diesel","LGL FB TR80 R","80","Pradhan","18+6*"
"CV","SAWARAJ MAZDA","SWARAJ SUPER ZT54, SWARAJ
PRESTIGE WT 490, 50STD, SWARAJ
PREMIUM WT49ESA, SWARAJ DUAL CAB,
SWARAJ COSMO, SWARAJ SARTAJ WV26-S","Diesel","LGL F0 80 R","80","Power+","18+0"
"CV","SAWARAJ MAZDA","ISUZU NQR, SWARAJ LCV","Diesel/CNG","LGL FF 100 L","100","Humraahi","18+18*"
"CV","SAWARAJ MAZDA","ISUZU NQR, SWARAJ LCV","Diesel/CNG","LGL FB TR100 L","100","Pradhan","18+6*"
"CV","SAWARAJ MAZDA","ISUZU NQR, SWARAJ LCV","Diesel/CNG","LGL F0 100 L","100","Power+","18+0"
"CV","SAWARAJ MAZDA","ISUZU LT 134-C, ISUZU SKS EXECUTIVE BUS","Diesel/CNG","LGL FB 150","150","Humraahi","18+6*"
"CV","STANDARD
CORPORATION","HMC9000, HMC11000, HMC13000,
HMC15000, HMC20000","Diesel","LGL FF 100 L","100","Humraahi","18+18*"
"CV","STANDARD
CORPORATION","HMC9000, HMC11000, HMC13000,
HMC15000, HMC20000","Diesel","LGL FB TR100 L","100","Pradhan","18+6*"
"CV","STANDARD
CORPORATION","HMC9000, HMC11000, HMC13000,
HMC15000, HMC20000","Diesel","LGL F0 100 L","100","Power+","18+0"
"CV","TATA MOTORS","ACE-0.75T, MAGIC","Diesel","LGM FB 38B20 L","35","Primo","18+6*"
"CV","TATA MOTORS","SUPER ACE/VENTURE 1.0T, IRIS, ZIP","Diesel","LGM FF 70D26 R","65","Pride","18+18*"
"CV","TATA MOTORS","SUPER ACE/VENTURE 1.0T, IRIS, ZIP","Diesel","LGM FB 65D26 R /
LGM FB 70D26 R","65","Primo","18+6*"
"CV","TATA MOTORS","TATA LCV LPT 407, DEFENCE VEHICLE LP407","Diesel","LGL FF 80 R","80","Humraahi","18+18*"
"CV","TATA MOTORS","TATA LCV LPT 407, DEFENCE VEHICLE LP408","Diesel","LGL FB TR80 R","80","Pradhan","18+6*"
"CV","TATA MOTORS","TATA LCV LPT 407, DEFENCE VEHICLE LP409","Diesel","LGL F0 80 R","80","Power+","18+0"
"CV","TATA MOTORS","LPT709E, SFC 709 E, 809, 909, 1109, LPS4018TC 32 CAB BSII UP, LPS 4018TC, 32 COWL BSII UP, LPT 3118 TC BSII, 8 X, 2LP 1112 BS III, TRUCK TRACTOR LPS 4018 TC","Diesel","LGL FF 100 L","100","Humraahi","18+18*"
"CV","TATA MOTORS","LPT709E, SFC 709 E, 809, 909, 1109, LPS4018TC 32 CAB BSII UP, LPS 4018TC, 32 COWL BSII UP, LPT 3118 TC BSII, 8 X, 2LP 1112 BS III, TRUCK TRACTOR LPS 4018 TC","Diesel","LGL FB TR100 L","100","Pradhan","18+6*"
"CV","TATA MOTORS","LPT709E, SFC 709 E, 809, 909, 1109, LPS4018TC 32 CAB BSII UP, LPS 4018TC, 32 COWL BSII UP, LPT 3118 TC BSII, 8 X, 2LP 1112 BS III, TRUCK TRACTOR LPS 4018 TC","Diesel","LGL F0 100 L","100","Power+","18+0"
"CV","TATA MOTORS","LP0 916TC RHD, LPT 1518 TC BSIi, TATA, LP0 1616 TC, TATA TRUCK LP0 1613 TC, TATA TRUCK LPT 1613, TATA TRUCK LPT, 1613 TC ABS, TATA TRUCK LPT 1615 TC,
TATA TRUCK LPT 2515 TC EX BSII, TATA, TRUCK LPT 2516 TC, TATA TRUCK SE, 1613 TC, LP0 1512, LP0 1510 WEBLER, MODELl, LPK 2518TC 6X4 BSII TIPPER, LPS2530-NOVUS, TATA 1623 BSii, LP0,916TC, LP 1615 697 BSIII, LP 1512 TC, LPT 1613 62 TC, TATA BUS LP 709 E/MARCOPOLO BUSLP0 1612/59 BSII RE/MARCO POLO STAR BUS/LP0 1615/62LE/TATA BUS LP/LP0
1510 BSII/TATA BUS LP/LP0 1512 TC BSII/TATA BUS LP/LP0 1512 TC ARMYBSII TATA BUS LP0 1510 CNG/LP 1510 59 CMVR BSII, TATA DEF SD 1015 TC, TATA DEF LPT 1615 TC, TATA DEF LPTA 1212 TC, TATA DEF LPTA 1621 TC, TATA TIPPER LPK 1615 TC, TATA TIPPER LPK 2516 TC, TATA TIPPER SK 1615 TC, TATA TRUCK TRACTOR LPS 3015 TC, TATA TRUCK TRACTOR LPS 3516 TC, TATA TRUCK TRACTOR LPS 4021 TC, LPK 1618 Bsii TIPPER (4X2)/LPK 1618 TC, TRAILER TRANSIT MIXER, PRIMA-3128.K (8X4), PRIMA-4928.S-TR, PRIMA-4028.S-TR, PRIMA 4938, PRIMA 4928.S SRT (6X4), PRIMA LX 4928.S HRT (6X4), PRIMALX 4928.S SRT (6X4), PRIMA LX 4923.S (6X4), LPS4923, PRIMA 3138.K(8X4), CONSTRUCK-SK1613 HYMILER, CONSTRUCK-LPK2518 9S, CONSTRUCK LPK 3118TC (8X4)","Diesel/CNG","LGL FB 150","150","Humraahi","18+6*"
"CV","TELCON","ZAXIS 75, HYDRAULIC EXCAVATOR (TMx20)-EX70, ZAXIS 120","Diesel","LGL FF 80 R","80","Humraahi","18+18*"
"CV","TELCON","ZAXIS 75, HYDRAULIC EXCAVATOR (TMx20)-EX70, ZAXIS 121","Diesel","LGL FB TR80 R","80","Pradhan","18+6*"
"CV","TELCON","ZAXIS 75, HYDRAULIC EXCAVATOR (TMx20)-EX70, ZAXIS 122","Diesel","LGL F0 80 R","80","Power+","18+0"
"CV","TELCON","EX 2500, TWL, FEL-TWL3036, CRANETCF- 75, CRANE-TATA320, ROAD MAKING EQUIPMENT-TATA-VM3","Diesel","LGL FB 130","130","Humraahi","18+6*"
"CV","TELCON","EXCAVATOR-EX300, EXCAVATOR-EX350V, CRANE-TFC 280","Diesel","LGL FB 150","150","Humraahi","18+6*"
"CV","TEREX VECTRA","T815-T3 B928-10, 23N-65, T815,
HEMANG-T3 B928-10","Diesel","LGL FB 130","130","Humraahi","18+6*"
"CV","URAL INDIA","UF16 (4X2) CARGO TRUCK, TRACTOR-UF40","Diesel","LGL FF 100 L","100","Humraahi","18+18*"
"CV","URAL INDIA","UF16 (4X2) CARGO TRUCK, TRACTOR-UF41","Diesel","LGL FB TR100 L","100","Pradhan","18+6*"
"CV","URAL INDIA","UF16 (4X2) CARGO TRUCK, TRACTOR-UF42","Diesel","LGL F0 100 L","100","Power+","18+0"
"CV","URAL INDIA","TIPPER-U555717, TIPPER-UF3140,
TIPPER-4040 CRDE","Diesel","LGL FB 150","150","Humraahi","18+6*"
"CV","VOLVO EICHER","EICHER-LCV10.50, 10.59, 10.6, 10.7, 10.75, 10.9, 10.95, MCV 11.10, 10.5, 10.75, 11.10H, 11.10K, EICHER-40.40 GOOD TRACTOR","Diesel","LGL FF 80 R","80","Humraahi","18+18*"
"CV","VOLVO EICHER","EICHER-LCV10.50, 10.59, 10.6, 10.7, 10.75, 10.9, 10.95, MCV 11.10, 10.5, 10.75, 11.10H, 11.10K, EICHER-40.40 GOOD TRACTOR","Diesel","LGL FB TR80 R","80","Pradhan","18+6*"
"CV","VOLVO EICHER","EICHER-LCV10.50, 10.59, 10.6, 10.7, 10.75, 10.9, 10.95, MCV 11.10, 10.5, 10.75, 11.10H, 11.10K, EICHER-40.40 GOOD TRACTOR","Diesel","LGL F0 80 R","80","Power+","18+0"
"CV","VOLVO EICHER","20.15 BUS, EICHER 10.90 K STARLINE BUS, EICHER-HCV 20.15, 20.16, 30.25, 33.25, HERCULES-36.31 (8X2), MEGA 40.40, BMTC, EICHER TERRA 16 HDR","Diesel/CNG","LGL FB 130","130","Humraahi","18+6*"
"CV","VOLVO EICHER","EICHER-40.40","Diesel/CNG","LGL FB 150","150","Humraahi","18+6*"
"CV","VOLVO","T-4361, SD110, DD90","Diesel","LGL FB 150","150","Humraahi","18+6*"
"CAR","CHEVROLET","OPEL CORSA, OPEL ASTRA, OPEL SWING","Petrol","LGM HH DIN55","55","Zing","24+24*"
"CAR","CHEVROLET","AVEO U-VA","Petrol/CNG","LGM HH DIN56","55","Zing","24+24*"
"CAR","CHEVROLET","SPARK","Petrol","LGM HH 38B20 L","35","Zing","24+24*"
"CAR","CHEVROLET","SPARK","Petrol","LGM FF 38B20 L","35","Pride","18+18*"
"CAR","CHEVROLET","SPARK","Petrol","LGM FB 38B20 L","35","Primo","18+6*"
"CAR","CHEVROLET","BEAT, U-VA","Petrol/CNG","LGM HH DIN50","50","Zing","24+24*"
"CAR","CHEVROLET","OPTRA","Diesel","LGM FF 105D31 R","85","Pride","18+18*"
"CAR","CHEVROLET","BEAT","Diesel","LGM HH DIN50","50","Zing","24+24*"
"SUV/ MUV","CHEVROLET","SAIL U-VA, ENJOY, TAVERA","Diesel","LGM FF 70D26 R","65","Pride","18+18*"
"SUV/ MUV","CHEVROLET","SAIL U-VA, ENJOY, TAVERA","Diesel","LGM FB 65D26 R /
LGM FB 70D26 R","65","Primo","18+6*"
"SUV/ MUV","CHEVROLET","SAIL U-VA, ENJOY, TAVERA","Diesel","LGM FB 65D26 R /
LGM FB 70D26 R","65","Primo","18+6*"
"CAR","DAEWOO","MATIZ","Petrol","LGM HH 38B20 R","35","Zing","24+24*"
"CAR","DAEWOO","MATIZ","Petrol","LGM FF 38B20 R","35","Pride","18+18*"
"CAR","DAEWOO","MATIZ","Petrol","LGM FB 38B20 R","35","Primo","18+6*"
"CAR","DAEWOO","CIELO, NEXIA","Petrol","LGM HH DIN55","55","Zing","24+24*"
"CAR","FIAT","SIENA, PETRA, LINEA, UNO, ADVENTURE SPORT, PALIO, PUNTO","Petrol","LGM HH DIN45","45","Zing","24+24*"
"CAR","FIAT","UNO, PALIO, PUNTO, SIENA, PETRA,
LINEA, ADVENTURE-SPORT","Diesel","LGM HH DIN50","50","Zing","24+24*"
"SUV/ MUV","FORD","ENDEAVOUR","Diesel","LGM FF 105D31 R","85","Pride","18+18*"
"SUV/ MUV","FORCE","TRAX, XL-PICKUP","Diesel","LGL FF 80 R","80","Humraahi","18+18*"
"SUV/ MUV","FORCE","TRAX, XL-PICKUP","Diesel","LGL FB TR80 R","80","Pradhan","18+6*"
"SUV/ MUV","FORCE","TRAX, XL-PICKUP","Diesel","LGL F0 80 R","80","Power+","18+0"
"SUV/ MUV","FORCE","FORCE ONE","Diesel","LGM FF 105D31 R","85","Pride","18+18*"
"CAR","HM","AMBASSADOR, CONTESSA","Petrol","LGM FF 70D26 R","65","Pride","18+18*"
"CAR","HM","AMBASSADOR, CONTESSA","Petrol","LGM FB 65D26 R /
LGM FB 70D26 R","65","Primo","18+6*"
"CAR","HM","LANCER, CEDIA","Petrol","LGM HH 38B20 L","35","Zing","24+24*"
"CAR","HM","LANCER, CEDIA","Petrol","LGM FF 38B20 L","35","Pride","18+18*"
"CAR","HM","LANCER, CEDIA","Petrol","LGM FB 38B20 L","35","Primo","18+6*"
"CAR","HM","LANCER, CEDIA","Diesel","LGM FF 105D31 L","85","Pride","18+18*"
"CAR","HM","AMBASSADOR","Diesel","LGL FF 80 R","80","Humraahi","18+18*"
"CAR","HM","AMBASSADOR","Diesel","LGL FB TR80 R","80","Pradhan","18+6*"
"CAR","HM","AMBASSADOR","Diesel","LGL F0 80 R","80","Power+","18+0"
"SUV/ MUV","HM","OKA, TREKKER","Diesel","LGL FF 80 R","80","Humraahi","18+18*"
"SUV/ MUV","HM","OKA, TREKKER","Diesel","LGL FB TR80 R","80","Pradhan","18+6*"
"SUV/ MUV","HM","OKA, TREKKER","Diesel","LGL F0 80 R","80","Power+","18+0"
"SUV/ MUV","HM","PAJERO","Diesel","LGM FF 105D31 L","85","Pride","18+18*"
"CAR","HONDA","CITY, NEW CITY, JAZZ, BRIO, AMAZE, MOBILIO-VTEC","Petrol","LGM HH 38B20 L","35","Zing","24+24*"
"CAR","HONDA","CITY, NEW CITY, JAZZ, BRIO, AMAZE, MOBILIO-VTEC","Petrol","LGM FF 38B20 L","35","Pride","18+18*"
"CAR","HONDA","CITY, NEW CITY, JAZZ, BRIO, AMAZE, MOBILIO-VTEC","Petrol","LGM FB 38B20 L","35","Primo","18+6*"
"SUV/ MUV","HONDA","CRV","Petrol","LGM HH 38B20 L","35","Zing","24+24*"
"SUV/ MUV","HONDA","CRV","Petrol","LGM FF 38B20 L","35","Pride","18+18*"
"SUV/ MUV","HONDA","CRV","Petrol","LGM FB 38B20 L","35","Primo","18+6*"
"CAR","HYUNDAI","i10, XCENT, GRAND i10, EON-800, EON-1LTR","Petrol","LGM FF 38B20 (BH) L","35","Pride","18+18*"
"CAR","HYUNDAI","SANTRO XING","Petrol","LGM HH 38B20 R","35","Zing","24+24*"
"CAR","HYUNDAI","SANTRO XING","Petrol","LGM FF 38B20 R","35","Pride","18+18*"
"CAR","HYUNDAI","SANTRO XING","Petrol","LGM FB 38B20 R","35","Primo","18+6*"
"CAR","MARUTI SUZUKI","ALTO, ALTO-800, WAGON-R, ZEN-ESTILO, BALENO, ALTO-K10, EECO, CELERIO, CIAZ, VITARA BREEZA, S-CROSS","Petrol/CNG/LPG","LGM HH 38B20 L","35","Zing","24+24*"
"CAR","MARUTI SUZUKI","ALTO, ALTO-800, WAGON-R, ZEN-ESTILO, BALENO, ALTO-K10, EECO, CELERIO, CIAZ, VITARA BREEZA, S-CROSS","Petrol/CNG/LPG","LGM FF 38B20 L","35","Pride","18+18*"
"CAR","MARUTI SUZUKI","ALTO, ALTO-800, WAGON-R, ZEN-ESTILO, BALENO, ALTO-K10, EECO, CELERIO, CIAZ, VITARA BREEZA, S-CROSS","Petrol/CNG/LPG","LGM FB 38B20 L","35","Primo","18+6*"
"SUV/ MUV","MARUTI SUZUKI","EECO, VITARA BREEZA, S-CROSS","Petrol/CNG/LPG","LGM HH 38B20 L","35","Zing","24+24*"
"SUV/ MUV","MARUTI SUZUKI","EECO, VITARA BREEZA, S-CROSS","Petrol/CNG/LPG","LGM FF 38B20 L","35","Pride","18+18*"
"SUV/ MUV","MARUTI SUZUKI","EECO, VITARA BREEZA, S-CROSS","Petrol/CNG/LPG","LGM FB 38B20 L","35","Primo","18+6*"
"CAR","MARUTI SUZUKI","800STD/AC/MPFI, ZEN, ESTEEM, SWIFT, SWIFT DZIRE, SX4, A-STAR, RITZ,","Petrol/CNG/LPG","LGM HH 38B20 R","35","Zing","24+24*"
"CAR","MARUTI SUZUKI","800STD/AC/MPFI, ZEN, ESTEEM, SWIFT, SWIFT DZIRE, SX4, A-STAR, RITZ,","Petrol/CNG/LPG","LGM FF 38B20 R","35","Pride","18+18*"
"CAR","MARUTI SUZUKI","800STD/AC/MPFI, ZEN, ESTEEM, SWIFT, SWIFT DZIRE, SX4, A-STAR, RITZ,","Petrol/CNG/LPG","LGM FB 38B20 R","35","Primo","18+6*"
"SUV/ MUV","MARUTI SUZUKI","GYPSY KING, GYPSY, OMNI-8 SEATER, OMNI CARGO,
OMNI AMBULANCE, ERTIGA","Petrol/CNG/LPG","LGM HH 38B20 R","35","Zing","24+24*"
"SUV/ MUV","MARUTI SUZUKI","GYPSY KING, GYPSY, OMNI-8 SEATER, OMNI CARGO,
OMNI AMBULANCE, ERTIGA","Petrol/CNG/LPG","LGM FF 38B20 R","35","Pride","18+18*"
"SUV/ MUV","MARUTI SUZUKI","GYPSY KING, GYPSY, OMNI-8 SEATER, OMNI CARGO,
OMNI AMBULANCE, ERTIGA","Petrol/CNG/LPG","LGM FB 38B20 R","35","Primo","18+6*"
"CAR","MARUTI SUZUKI","800 NON AC","Petrol/CNG/LPG","LGM FB 36B20 R","32","Primo","18+6*"
"CAR","MARUTI SUZUKI","CIAZ","Diesel","LGM HH DIN55","55","Zing","24+24*"
"SUV/ MUV","MARUTI SUZUKI","VITARA BREEZA, BALENO","Diesel","LGM HH DIN50","50","Zing","24+24*"
"CAR","MARUTI SUZUKI","RITZ, SWIFT, SWIFT DZIRE, SX4,","Diesel","LGM HH DIN65 (LH)","65","Zing","24+24*"
"SUV/ MUV","MARUTI SUZUKI","ERTIGA, S-CROSS","Diesel","LGM HH DIN65 (LH)","65","Zing","24+24*"
"CAR","PREMIER","PADMINI","Petrol/CNG/LPG","LGM HH DIN45","45","Zing","24+24*"
"CAR","PREMIER","PADMINI","Diesel","LGM FF 70D26 R","65","Pride","18+18*"
"CAR","PREMIER","PADMINI","Diesel","LGM FB 65D26 R /
LGM FB 70D26 R","65","Primo","18+6*"
"SUV/ MUV","PREMIER","VAN-UTILITY, ROADSTAR, STIGMA","Diesel","LGM FF 70D26 R","65","Pride","18+18*"
"SUV/ MUV","PREMIER","VAN-UTILITY, ROADSTAR, STIGMA","Diesel","LGM FB 65D26 R /
LGM FB 70D26 R","65","Primo","18+6*"
"CAR","TOYOTA","COROLLA, ETIOS, ETIOS LIVA, COROLLA
ALTIS","Petrol","LGM HH 38B20 L","35","Zing","24+24*"
"CAR","TOYOTA","COROLLA, ETIOS, ETIOS LIVA, COROLLA
ALTIS","Petrol","LGM FF 38B20 L","35","Pride","18+18*"
"CAR","TOYOTA","COROLLA, ETIOS, ETIOS LIVA, COROLLA
ALTIS","Petrol","LGM FB 38B20 L","35","Primo","18+6*"
"SUV/ MUV","TOYOTA","INNOVA","Petrol","LGM HH 38B20 L","35","Zing","24+24*"
"SUV/ MUV","TOYOTA","INNOVA","Petrol","LGM FF 38B20 L","35","Pride","18+18*"
"SUV/ MUV","TOYOTA","INNOVA","Petrol","LGM FB 38B20 L","35","Primo","18+6*"
"SUV/ MUV","TOYOTA","PRADO, LAND CRUISER, FORTUNER, LEXUS","Diesel","LGM FF 105D31 L","85","Pride","18+18*"
"SUV/ MUV","TOYOTA","QUALIS, INNOVA","Diesel","LGM FF 70D26 L","65","Pride","18+18*"
"SUV/ MUV","TOYOTA","QUALIS, INNOVA","Diesel","LGM FB 65D26 L /
LGM FB 70D26 L","65","Primo","18+6*"
"CAR","TATA MOTORS","INDICA, INDIGO, INDIGO-MARINA","Petrol","LGM HH 38B20 R","35","Zing","24+24*"
"CAR","TATA MOTORS","INDICA, INDIGO, INDIGO-MARINA","Petrol","LGM FF 38B20 R","35","Pride","18+18*"
"CAR","TATA MOTORS","INDICA, INDIGO, INDIGO-MARINA","Petrol","LGM FB 38B20 R","35","Primo","18+6*"
"CAR","TATA MOTORS","INDICA DLE, INDICA CAB,
INDIGO CRDI, INDIGO MARINA CRDI","Diesel","LGM FF 70D26 R","65","Pride","18+18*"
"CAR","TATA MOTORS","INDICA DLE, INDICA CAB,
INDIGO CRDI, INDIGO MARINA CRDI","Diesel","LGM FB 65D26 R /
LGM FB 70D26 R","65","Primo","18+6*"
"SUV/ MUV","TATA MOTORS","SUMO VICTA, SPACIO, SAFARI, XENON
CRDI, ARIA-2.2L, TATA MOBILE, WINGER","Diesel","LGM FF 105D31 R","85","Pride","18+18*"
"SUV/ MUV","TATA MOTORS","SUMO VICTA, SPACIO, SAFARI, XENON
CRDI, ARIA-2.2L, TATA MOBILE, WINGER","Diesel","LGL FF 80 R","80","Humraahi","18+18*"
"SUV/ MUV","TATA MOTORS","SUMO VICTA, SPACIO, SAFARI, XENON
CRDI, ARIA-2.2L, TATA MOBILE, WINGER","Diesel","LGL FB TR80 R","80","Pradhan","18+6*"
"SUV/ MUV","TATA MOTORS","SUMO VICTA, SPACIO, SAFARI, XENON
CRDI, ARIA-2.2L, TATA MOBILE, WINGER","Diesel","LGL F0 80 R","80","Power+","18+0"
"SUV/ MUV","TATA MOTORS","VENTURE-1.4LTR.","Diesel","LGM FF 70D26 R","65","Pride","18+18*"
"SUV/ MUV","TATA MOTORS","VENTURE-1.4LTR.","Diesel","LGM FB 65D26 R /
LGM FB 70D26 R","65","Primo","18+6*"
"SUV/ MUV","ICML","RHINO, XCITER, DELITE, WINNER","Diesel","LGM FF 70D26 R","65","Pride","18+18*"
"SUV/ MUV","ICML","RHINO, XCITER, DELITE, WINNER","Diesel","LGM FB 65D26 R /
LGM FB 70D26 R","65","Primo","18+6*"
"CAR","M&M","LOGAN, VERITO","Petrol","LGM HH DIN50","50","Zing","24+24*"
"CAR","M&M","VERITO VIBE","Diesel","LGM HH DIN51","50","Zing","24+24*"
"SUV/ MUV","M&M","BOLERO, SCORPIO, XYLO, CAMPER, GENIO, PICKUP, THAR, COMMANDER NEW, MARSHAL NEW, MAXX, ARMADA NEW, QUANTO, XUV500 (W6), TUV 300, NUVOSPORT","Diesel","LGM FF 70D26 R","65","Pride","18+18*"
"SUV/ MUV","M&M","BOLERO, SCORPIO, XYLO, CAMPER, GENIO, PICKUP, THAR, COMMANDER NEW, MARSHAL NEW, MAXX, ARMADA NEW, QUANTO, XUV500 (W6), TUV 300, NUVOSPORT","Diesel","LGM FB 65D26 R /
LGM FB 70D26 R","65","Primo","18+6*"
"SUV/ MUV","M&M","COMMANDER 650 OLD, MARSHALL OLD,
ARMADA OLD, ARMY RANGE 550XXD, VOYAGER, BOLERO OLD","Diesel","LGM FF 105D31 R","85","Pride","18+18*"
"SUV/ MUV","M&M","COMMANDER 650 OLD, MARSHALL OLD,
ARMADA OLD, ARMY RANGE 550XXD, VOYAGER, BOLERO OLD","Diesel","LGL FF 80 R","80","Humraahi","18+18*"
"SUV/ MUV","M&M","COMMANDER 650 OLD, MARSHALL OLD,
ARMADA OLD, ARMY RANGE 550XXD, VOYAGER, BOLERO OLD","Diesel","LGL FB TR80 R","80","Pradhan","18+6*"
"SUV/ MUV","M&M","COMMANDER 650 OLD, MARSHALL OLD,
ARMADA OLD, ARMY RANGE 550XXD, VOYAGER, BOLERO OLD","Diesel","LGL F0 80 R","80","Power+","18+0"
"CAR","NISSAN","MICRA 1.2L, SUNNY","Petrol","LGM HH 38B20 L","35","Zing","24+24*"
"CAR","NISSAN","MICRA 1.2L, SUNNY","Petrol","LGM FF 38B20 L","35","Pride","18+18*"
"CAR","NISSAN","MICRA 1.2L, SUNNY","Petrol","LGM FB 38B20 L","35","Primo","18+6*"
"CAR","NISSAN","TEANA","Petrol","LGM HH DIN50","50","Zing","24+24*"
"CAR","NISSAN","MICRA 1.5L, SUNNY 1.5L,","Diesel","LGM HH DIN51","50","Zing","24+24*"
"CAR","RENAULT","PULSE, KWID","Petrol","LGM HH 38B20 L","35","Zing","24+24*"
"CAR","RENAULT","PULSE, KWID","Petrol","LGM FF 38B20 L","35","Pride","18+18*"
"CAR","RENAULT","PULSE, KWID","Petrol","LGM FB 38B20 L","35","Primo","18+6*"
"CAR","RENAULT","PULSE 1.5L, SCALA","Diesel","LGM HH DIN50","50","Zing","24+24*"
"3 Wheelers","ATUL AUTO","GEM CARGO, ATUL SHAKTI, ATUL
SHAKTI-GEM PAXX","Petrol/LPG/CNG","LGM D0 AR32 R","32","AUTOZ","12+0"
"4 Wheelers","ATUL AUTO","GEM CARGO, ATUL SHAKTI, ATUL
SHAKTI-GEM PAXX","Diesel","LGM F0 AR60 L","60","AUTOZ","18+0"
"5 Wheelers","BAJAJ AUTO","VAN 4S, RE, RE 4S, FE-4SP VAN, FE DAC
4S, RE DSL-DAC, FE4S-D VAN, RE4S, RE
AR ELECT., RE 2S, RE 2S (DI)","Petrol/Diesel/LPG/CNG","LGM D0 AR32 R","32","AUTOZ","12+0"
"6 Wheelers","BAJAJ AUTO","GC1000","Diesel","LGM F0 AR60 L","60","AUTOZ","18+0"
"7 Wheelers","LOTIA MOTORS","MUSTANG 340 DII, MUSTANG 450 DII,
MUSTANG 750 DII LOTIA","Petrol/Diesel/LPG/CNG","LGM F0 AR60 L","60","AUTOZ","18+0"
"8 Wheelers","PIAGGIO VEHICLES","APE 501","Petrol/CNG","LGM D0 AR32 R","32","AUTOZ","12+0"
"9 Wheelers","PIAGGIO VEHICLES","APE-501, APE-601, APE CITY, APE XTRA","Diesel","LGM F0 AR60 L","60","AUTOZ","18+0"
"10 Wheelers","PANCHNATH AUTO","LGA-340-4STK","Petrol/LPG/CNG","LGM D0 AR32 R","32","AUTOZ","12+0"
"11 Wheelers","PANCHNATH AUTO","GL-400BS11A-4STK","Diesel","LGM F0 AR60 L","60","AUTOZ","18+0"
"12 Wheelers","FORCE MOTORS","MINIDOR GOODS, PASSENGER","Diesel","LGM F0 AR60 L","60","AUTOZ","18+0"
"13 Wheelers","KRANTI AUTO","NANDI-SUPER 400 FE, NANDI-SUPER
SHAKTI-400 FE, NANDI-POWER 510
FE, NANDI-JAIHO 400 RENANDI-JAIHO
400RE, NANDI-POWER 510FE, NANDISUPER
400FE, NANDI-SUPER SHAKTI
400FE","Diesel/CNG","LGM F0 AR60 L","60","AUTOZ","18+0"
"14 Wheelers","KERALA MOTORS","360, MX400 SERIES (SELF STARTER)
KAL-350, KAL-GL, 360 KAL, GL 400,
MX400 PICK-UP VAN, MX400 TIPPER,
MX400 TUSKER, KAL-175","Diesel/LPG/CNG","LGM D0 AR32 R","32","AUTOZ","12+0"
"15 Wheelers","M&M","CHAMPION, ALFA","Diesel","LGM F0 AR60 L","60","AUTOZ","18+0"
"16 Wheelers","SCOOTER INDIA","VIKRAM-450D VIKRAM-600LPG,
VIKRAM-600G, VIKRAM-410G, VIKRAM-
750D, VIKRAM-1500","Diesel","LGM F0 AR60 L","60","AUTOZ","18+0"
"17 Wheelers","CONTINENTAL
ENGINES","CEL12+000","Diesel","LGM F0 AR60 L","60","AUTOZ","18+0"
"18 Wheelers","TVS","TVS KING","LPG/CNG","LGM D0 AR32 R","32","AUTOZ","12+0"
"19 Wheelers","TVS","TVS KING","LPG/CNG","","32","AUTOZ","12+1"
"Tractor","ACE","ACE DI350, DI450","Diesel","LGL FF TR75 R","75","Pradhan","18+18*"
"Tractor","ACE","ACE DI350, DI451","Diesel","LGL FB TR75 R","75","Pradhan","18+6*"
"Tractor","ACE","ACE DI 550","Diesel","LGL FF TR90 L","90","Pradhan","18+18*"
"Tractor","ACE","ACE DI 551","Diesel","LGL F0 TR90 L","90","Power+","18+0"
"Tractor","EICHER
(TAFE)","TR-312, 364, 368, 380, 485","Diesel","LGL FF TR75 R","75","Pradhan","18+18*"
"Tractor","EICHER
(TAFE)","TR-312, 364, 368, 380, 486","Diesel","LGL FB TR75 R","75","Pradhan","18+6*"
"Tractor","EICHER
(TAFE)","241, 242-DI","Diesel","LGL FF TR90 L","90","Pradhan","18+18*"
"Tractor","EICHER
(TAFE)","241, 242-DI","Diesel","LGL F0 TR90 L","90","Power+","18+0"
"Tractor","EICHER
(TAFE)","VALTRA-6100","Diesel","LGL FF 100 L","100","Humraahi","18+18*"
"Tractor","EICHER
(TAFE)","VALTRA-6101","Diesel","LGL FB TR100 L","100","Pradhan","18+6*"
"Tractor","EICHER
(TAFE)","VALTRA-6102","Diesel","LGL F0 100 L","100","Power+","18+0"
"Tractor","ESCORT","FT30, FT35, JOSH-325, JOSH-335,
STANDARD-335","Diesel","LGL FF TR75 R","75","Pradhan","18+18*"
"Tractor","ESCORT","FT30, FT35, JOSH-325, JOSH-335,
STANDARD-335","Diesel","LGL FB TR75 R","75","Pradhan","18+6*"
"Tractor","ESCORT","FT-45, FT-60, FT-450, FT-475 POWERTRAC
445, 455","Diesel","LGL FF TR90 L","90","Pradhan","18+18*"
"Tractor","ESCORT","FT-45, FT-60, FT-450, FT-475 POWERTRAC
445, 455","Diesel","LGL F0 TR90 L","90","Power+","18+0"
"Tractor","FORCE MOTORS","BALWAN 330, OX 25","Diesel","LGM FF 70D26 R","65","Pride","18+18*"
"Tractor","FORCE MOTORS","BALWAN 330, OX 26","Diesel","LGM FB 65D26 R /
LGM FB 70D26 R","65","Primo","18+6*"
"Tractor","FORCE MOTORS","ORCHARD-OX 25, BALWAN-330,
BALWAN-400, BALWAN-450, BALWAN-500","Diesel","LGL FF TR75 R","75","Pradhan","18+18*"
"Tractor","FORCE MOTORS","ORCHARD-OX 25, BALWAN-330,
BALWAN-400, BALWAN-450, BALWAN-500","Diesel","LGL FB TR75 R","75","Pradhan","18+6*"
"Tractor","INDO FARM","2030DI-33HP, 2035Di-38HP, 3035-38HP","Diesel","LGL FF TR75 R","75","Pradhan","18+18*"
"Tractor","INDO FARM","2030DI-33HP, 2035Di-38HP, 3035-38HP","Diesel","LGL FB TR75 R","75","Pradhan","18+6*"
"Tractor","INDO FARM","2040Di-40HP, 3040-45 HP, 2060Di-60HP, 3050-HP, 2050-50HP, 2042DI-45HP, 3048 DI-50HP, 3052 DI-55HP","Diesel","LGL FF TR90 L","90","Pradhan","18+18*"
"Tractor","INDO FARM","2040Di-40HP, 3040-45 HP, 2060Di-60HP, 3050-HP, 2050-50HP, 2042DI-45HP, 3048 DI-50HP, 3052 DI-55HP","Diesel","LGL F0 TR90 L","90","Power+","18+0"
"Tractor","ITL","SONALIKA BAAGBAN-Di 730II-30HP,
Di 730III-32HP, DI 734S1, Di 734S3, DI
735II-35HP, Di 740S3 SUPER-40HP, DI 735,DI732, Di 745-45HP","Diesel","LGL FF TR75 R","75","Pradhan","18+18*"
"Tractor","ITL","SONALIKA BAAGBAN-Di 730II-30HP,
Di 730III-32HP, DI 734S1, Di 734S3, DI
735II-35HP, Di 740S3 SUPER-40HP, DI 735,DI732, Di 745-45HP","Diesel","LGL FB TR75 R","75","Pradhan","18+6*"
"Tractor","ITL","SONALIKA-DI35 S3 Series, Di 740III S3
Series, Di 745III Series, Di 750, Di 755, Di 760 Series","Diesel","LGL FF TR90 L","90","Pradhan","18+18*"
"Tractor","ITL","SONALIKA-DI35 S3 Series, Di 740III S3
Series, Di 745III Series, Di 750, Di 755, Di 760 Series","Diesel","LGL F0 TR90 L","90","Power+","18+0"
"Tractor","JOHN DEERE","5036C-35HP, 5041C-35HP, 5038D-38HP, 5103-40HP, 5103S-40HP, 5014-45HP, 5103S-50HP, 5204-50HP, 5042D, 5045D, 5050D, 5055E","Diesel","LGL FF TR90 L","90","Pradhan","18+18*"
"Tractor","JOHN DEERE","5036C-35HP, 5041C-35HP, 5038D-38HP, 5103-40HP, 5103S-40HP, 5014-45HP, 5103S-50HP, 5204-50HP, 5042D, 5045D, 5050D, 5055E","Diesel","LGL F0 TR90 L","90","Power+","18+0"
"Tractor","JOHN DEERE","5310-55HP, 5410-55HP, 5610 MSWP-75HP, 5060E, 5065E, 5075E, 5725 MFWD","Diesel","LGL FF 100 L","100","Humraahi","18+18*"
"Tractor","JOHN DEERE","5310-55HP, 5410-55HP, 5610 MSWP-75HP, 5060E, 5065E, 5075E, 5725 MFWD","Diesel","LGL FB TR100 L","100","Pradhan","18+6*"
"Tractor","JOHN DEERE","5310-55HP, 5410-55HP, 5610 MSWP-75HP, 5060E, 5065E, 5075E, 5725 MFWD","Diesel","LGL F0 100 L","100","Power+","18+0"
"Tractor","M&M","YUVRAJ-215","Diesel","LGM FF 70D26 R","65","Pride","18+18*"
"Tractor","M&M","YUVRAJ-216","Diesel","LGM FB 65D26 R /
LGM FB 70D26 R","65","Primo","18+6*"
"Tractor","M&M","SWARAJ-722","Diesel","LGL FF TR75 R","75","Pradhan","18+18*"
"Tractor","M&M","SWARAJ-723","Diesel","LGL FB TR75 R","75","Pradhan","18+6*"
"Tractor","M&M","SARPANCH-265DI, BHOOMIPUTRA-
265DI, ARJUN-445D, SARPANCH-275DI
TU, SARPANCH-475DI, BHOOMIPUTRA-
275DI TU, BHOOMIPUTRA-475DI, ARJUN
555DI, ARJUN 605DI, SARPANCH 575DI,
BHOOMIPUTRA-575DI, SARPANCH 585DI,
SWARAJ 724FE, SWARAJ 735, SWARAJ
744FE, SWARAJ 834FE, SWARAJ 733FE,
SWARAJ 743FE","Diesel","LGL FF TR90 L","90","Pradhan","18+18*"
"Tractor","M&M","SARPANCH-265DI, BHOOMIPUTRA-
265DI, ARJUN-445D, SARPANCH-275DI
TU, SARPANCH-475DI, BHOOMIPUTRA-
275DI TU, BHOOMIPUTRA-475DI, ARJUN
555DI, ARJUN 605DI, SARPANCH 575DI,
BHOOMIPUTRA-575DI, SARPANCH 585DI,
SWARAJ 724FE, SWARAJ 735, SWARAJ
744FE, SWARAJ 834FE, SWARAJ 733FE,
SWARAJ 743FE","Diesel","LGL F0 TR90 L","90","Power+","18+0"
"Tractor","M&M","SWARAJ-855","Diesel","LGL FF 100 L","100","Humraahi","18+18*"
"Tractor","M&M","SWARAJ-856","Diesel","LGL FB TR100 L","100","Pradhan","18+6*"
"Tractor","M&M","SWARAJ-857","Diesel","LGL F0 100 L","100","Power+","18+0"
"Tractor","M&M","SHAKTIMAAN-312","Diesel","LGL FF TR75 R","75","Pradhan","18+18*"
"Tractor","M&M","SHAKTIMAAN-313","Diesel","LGL FB TR75 R","75","Pradhan","18+6*"
"Tractor","M&M","SHAKTIMAAN-35 HIGH TORQUE,
SHAKTIMAAN-35 HIGH SPEED,
SHAKTIMAAN-40 CM, SHAKTIMAAN-40 SLX, SHAKTIMAAN 45CM, SHAKTIMAAN- 4501B, SHAKTIMAAN-45 SLX","Diesel","LGL FF TR90 L","90","Pradhan","18+18*"
"Tractor","M&M","SHAKTIMAAN-35 HIGH TORQUE,
SHAKTIMAAN-35 HIGH SPEED,
SHAKTIMAAN-40 CM, SHAKTIMAAN-40 SLX, SHAKTIMAAN 45CM, SHAKTIMAAN- 4501B, SHAKTIMAAN-45 SLX","Diesel","LGL F0 TR90 L","","Power+","18+0"
"Tractor","M&M","SHAKTIMAAN-614, SHAKTIMAAN-614
ROAD STAR, SHAKTIMAAN-614 PS","Diesel","LGL FB 130","130","Humraahi","18+6*"
"Tractor","NEW HOLLAND
","NH 3030, 3130, 3230, 3600 (35-47HP)","Diesel","LGL FF TR75 R","75","Pradhan","18+18*"
"Tractor","NEW HOLLAND
","NH 3030, 3130, 3230, 3600 (35-47HP)","Diesel","LGL FB TR75 R","75","Pradhan","18+6*"
"Tractor","NEW HOLLAND
","NH 5500, 3630-55HP","Diesel","LGL FF TR90 L","90","Pradhan","18+18*"
"Tractor","NEW HOLLAND
","NH 5500, 3630-55HP","Diesel","LGL F0 TR90 L","90","Power+","18+0"
"Tractor","NEW HOLLAND
","NH 7500-75HP, 6500, TD90-90HP","Diesel","LGL FF 100 L","100","Humraahi","18+18*"
"Tractor","NEW HOLLAND
","NH 7500-75HP, 6500, TD90-90HP","Diesel","LGL FB TR100 L","100","Pradhan","18+6*"
"Tractor","NEW HOLLAND
","NH 7500-75HP, 6500, TD90-90HP","Diesel","LGL F0 100 L","100","Power+","18+0"
"Tractor","PREET
TRACTORS","PREET 3549, 4049, 4549, 7549","Diesel","LGL FF TR75 R","75","Pradhan","18+18*"
"Tractor","PREET
TRACTORS","PREET 3549, 4049, 4549, 7550","Diesel","LGL FB TR75 R","75","Pradhan","18+6*"
"Tractor","PREET
TRACTORS","PREET 5049, 6049","Diesel","LGL FF TR90 L","90","Pradhan","18+18*"
"Tractor","PREET
TRACTORS","PREET 5049, 6050","Diesel","LGL F0 TR90 L","90","Power+","18+0"
"Tractor","PREET
TRACTORS","HARVESTER-749, 949, 987","Diesel","LGL FF 100 L","100","Humraahi","18+18*"
"Tractor","PREET
TRACTORS","HARVESTER-749, 949, 988","Diesel","LGL FB TR100 L","100","Pradhan","18+6*"
"Tractor","PREET
TRACTORS","HARVESTER-749, 949, 989","Diesel","LGL F0 100 L","100","Power+","18+0"
"Tractor","STANDARD
CORPORATION","STANDARD-124-DI, 235-DI, 330-DI, 335-DI,345-DI","Diesel","LGL FF TR75 R","75","Pradhan","18+18*"
"Tractor","STANDARD
CORPORATION","STANDARD-124-DI, 235-DI, 330-DI, 335-DI,345-DI","Diesel","LGL FB TR75 R","75","Pradhan","18+6*"
"Tractor","STANDARD
CORPORATION","STANDARD-450","Diesel","LGL FF TR90 L","90","Pradhan","18+18*"
"Tractor","STANDARD
CORPORATION","STANDARD-451","Diesel","LGL F0 TR90 L","90","Power+","18+0"
"Tractor","STANDARD
CORPORATION","STANDARD-460, 475","Diesel","LGL FF 100 L","100","Humraahi","18+18*"
"Tractor","STANDARD
CORPORATION","STANDARD-460, 476","Diesel","LGL FB TR100 L","100","Pradhan","18+6*"
"Tractor","STANDARD
CORPORATION","STANDARD-460, 477","Diesel","LGL F0 100 L","100","Power+","18+0"
"Tractor","TAFE","EICHER TRACTOR-300, 312, 333, 364, 368, 380, 485, 241 XTRAC, 242 XTRAC, 460, 486, 487, 488, 5150, 5660, 6100, 6101, 35, 42, 45, 241, 1030, 1035, 5245 DI MAHASHAKTI, TAFE-MF 241 EAGLE,
MF245-HAULAGE, MF5245-MAHAAN,
9500, 375ET","Diesel","LGL FF TR75 R","75","Pradhan","18+18*"
"Tractor","TAFE","EICHER TRACTOR-300, 312, 333, 364, 368, 380, 485, 241 XTRAC, 242 XTRAC, 460, 486, 487, 488, 5150, 5660, 6100, 6101, 35, 42, 45, 241, 1030, 1035, 5245 DI MAHASHAKTI, TAFE-MF 241 EAGLE,
MF245-HAULAGE, MF5245-MAHAAN,
9500, 375ET","Diesel","LGL FB TR75 R","75","Pradhan","18+6*"
"Motorcycle","BAJAJ","CT100, Boxer (AT/CT/4S), Bravo-DC,Caliber115, Caliber Croma, Caliber-kTec., BYKE, Platina100, Platina DTS-SI, Discover135, Discover M, Pulsar(KS-Old), KB-4S,Wind-125, Aspire, Champion, Discover 110","","LGBTX 2.5L","2.5","MoRide","24+24*"
"Motorcycle","BAJAJ","Discover M, Discover 135DTS-Si, XCD-125DTS-Si, XCD-135DTS-Si, Pulsar 125,Pulsar 135, Platina 125","","LGZ HH TX5","5","MoRide","24+24*"
"Motorcycle","BAJAJ","Discover M, Discover 135DTS-Si, XCD-125DTS-Si, XCD-135DTS-Si, Pulsar 125,Pulsar 135, Platina 126","","LGBTX 5L","5","MoRide","24+24*"
"Motorcycle","BAJAJ","Discover M, Discover H, Pulsar 150(New), Discover 150","","LGBTX 7L","7","MoRide","24+24*"
"Motorcycle","BAJAJ","Pulsar 150 (OLD),Pulsar 180, Pulsar 220, Pulsar 220DTSi,
Avenger 200, Avenger 220, Eliminator","","LGBTX 9L","9","MoRide","24+24*"
"Scooter","BAJAJ","Bravo","","LGBTX 2.5L","2.5","MoRide","24+24*"
"Scooter","BAJAJ","Spirit, Wave, Saffire, Kristal","","LGZ HH TX5","5","MoRide","24+24*"
"Scooter","BAJAJ","Spirit, Wave, Saffire, Kristal","","LGBTX 5L","5","MoRide","24+24*"
"Motorcycle","HERO MOTOCORP","CD Dawn, CD Deluxe,CD 100SS, Sleek, Splendor, Splendor +, Passion Plus, Passion Pro, CB100, Ambition, Street, Super Splendor, Super Splendor NXG, Glamour, Glamour FI, Achiever","","LGBTX 2.5L","2.5","MoRide","24+24*"
"Motorcycle","HERO MOTOCORP","CD Dawn, CD Deluxe, CD Deluxe Pro, Splendor NXG Pro, Passion Pro, Passion 10, Super Splendor (New), CD Deluxe Pro, Passion Pro, Super Splendor (New), Splendor NXG Pro, Glamour Pro, Glamour FI, Maestro, Passion 10, Glamour (New), Glamour F1 (New), CD Deluxe","","LGZ HH TZ4","3","MoRide","24+24*"
"Motorcycle","HERO MOTOCORP","CD Dawn, CD Deluxe, CD Deluxe Pro, Splendor NXG Pro, Passion Pro, Passion 10, Super Splendor (New), CD Deluxe Pro, Passion Pro, Super Splendor (New), Splendor NXG Pro, Glamour Pro, Glamour FI, Maestro, Passion 10, Glamour (New), Glamour F1 (New), CD Deluxe","","LGBTX 4L","3","MoRide","24+24*"
"Motorcycle","HERO MOTOCORP","Hunk, CBZ-Xtreme, Impulse","","LGZ HH TZ5","4","MoRide","24+24*"
"Motorcycle","HERO MOTOCORP","CBZ X-Treme, Achiever, Splendor Plus, Super Splendor, Passion Plus, Super Splendor NXG, CD DLX, Passion Pro, Super Splendor, Super Splendor NXG, Ambition, Street, Glamour, Glamour FI, Winner","","LGZ HH TX5","5","MoRide","24+24*"
"Motorcycle","HERO MOTOCORP","CBZ X-Treme, Achiever, Splendor Plus, Super Splendor, Passion Plus, Super Splendor NXG, CD DLX, Passion Pro, Super Splendor, Super Splendor NXG, Ambition, Street, Glamour, Glamour FI, Winner","","LGZ HH TX6","5","MoRide","24+24*"
"Motorcycle","HERO MOTOCORP","CBZ X-Treme, Achiever, Splendor Plus, Super Splendor, Passion Plus, Super Splendor NXG, CD DLX, Passion Pro, Super Splendor, Super Splendor NXG, Ambition, Street, Glamour, Glamour FI, Winner","","LGBTX 5L","5","MoRide","24+24*"
"Motorcycle","HERO MOTOCORP","Achiever, CBZ, CBZ X-Treme","","LGBTX 7L","7","MoRide","24+24*"
"Scooter","HERO MOTOCORP","Maestro","","LGZ HH TZ4","3","MoRide","24+24*"
"Scooter","HERO MOTOCORP","Maestro","","LGBTX 4L","3","MoRide","24+24*"
"Scooter","HERO MOTOCORP","Pleasure, Duet","","LGZ HH TZ5","4","MoRide","24+24*"
"Scooter","HERO MOTOCORP","Pleasure, Street, Super Splender, Winner, Activa (New), Dio, Aviator","","LGZ HH TX5","5","MoRide","24+24*"
"Scooter","HERO MOTOCORP","Pleasure, Street, Super Splender, Winner, Activa (New), Dio, Aviator","","LGBTX 5L","5","MoRide","24+24*"
"Motorcycle","HONDA","CB Twister, Dream Yuga, Dream New, Shine, Stunner, Twister, Dream Yuga, Dream New, CB Trigger","","LGZ HH TZ4","3","MoRide","24+24*"
"Motorcycle","HONDA","CB Twister, Dream Yuga, Dream New, Shine, Stunner, Twister, Dream Yuga, Dream New, CB Trigger","","LGBTX 4L","3","MoRide","24+24*"
"Motorcycle","HONDA","Unicorn Dazzler","","LGZ HH TZ5","4","MoRide","24+24*"
"Scooter","HONDA","Activa (New), Aviator, New Dio","","LGZ HH TZ4","3","MoRide","24+24*"
"Scooter","HONDA","Activa (New), Aviator, New Dio","","LGBTX 4L","3","MoRide","24+24*"
"Scooter","HONDA","Dio","","LGZ HH TZ5","4","MoRide","24+24*"
"Scooter","HONDA","Activa (Old),Aviator (Old), New Dio (Old)","","LGZ HH TX5","5","MoRide","24+24*"
"Scooter","HONDA","Activa (Old),Aviator (Old), New Dio (Old)","","LGBTX 5L","5","MoRide","24+24*"
"Motorcycle","KINETIC MOTORS","Velocity, Boss, Laser, Challenger, K4100","","LGBTX 2.5L","2.5","MoRide","24+24*"
"Motorcycle","KINETIC MOTORS","Laser","","LGZ HH TX5","5","MoRide","24+24*"
"Motorcycle","KINETIC MOTORS","Laser","","LGBTX 5L","5","MoRide","24+24*"
"Motorcycle","KINETIC MOTORS","Kinetic 4sS , GF Laser GL170","","LGBTX 9L","9","MoRide","24+24*"
"Scooter","KINETIC MOTORS","Kinetic Honda DX, ZX Marvel, Kine Zoom","","LGZ HH TX5","5","MoRide","24+24*"
"Scooter","KINETIC MOTORS","Kinetic Honda DX, ZX Marvel, Kine Zoom","","LGBTX 5L","5","MoRide","24+24*"
"Motorcycle","MAHINDRA","Penturo","","LGBTX 2.5L","2.5","MoRide","24+24*"
"Motorcycle","MAHINDRA","Stallio, Penturo, Laser, Cnturo","","LGZ HH TX5","5","MoRide","24+24*"
"Motorcycle","MAHINDRA","Stallio, Penturo, Laser, Cnturo","","LGBTX 5L","5","MoRide","24+24*"
"Scooter","MAHINDRA","Flyte, Kinetic 4S, Stryker, Zing, Zing80, ZX Zoom, Gusto 1110","","LGZ HH TX5","5","MoRide","24+24*"
"Scooter","MAHINDRA","Flyte, Kinetic 4S, Stryker, Zing, Zing80, ZX Zoom, Gusto 1111","","LGBTX 5L","5","MoRide","24+24*"
"Scooter","MAHINDRA","Rodeo, Duro, Rodeo RZ, Duro RZ","","LGBTX 7L","7","MoRide","24+24*"
"Scooter","MAHINDRA","Nova, Kine, Nova135, NovaDLX, Blaze, Flyte","","LGBTX 9L","9","MoRide","24+24*"
"Motorcycle","SHARDA AUTOMOBILES","Xpressions Plus, Rock100","","LGZ HH TX5","5","MoRide","24+24*"
"Motorcycle","SHARDA AUTOMOBILES","Xpressions Plus, Rock101","","LGBTX 5L","5","MoRide","24+24*"
"Scooter","SHARDA AUTOMOBILES","UFO","","LGBTX 7L","7","MoRide","24+24*"
"Motorcycle","VIBGYOR","Gallop, Hunter","","LGZ HH TX5","5","MoRide","24+24*"
"Motorcycle","VIBGYOR","Gallop, Hunter","","LGBTX 5L","5","MoRide","24+24*"
"Motorcycle","VIBGYOR","Shark","","LGBTX 7L","7","MoRide","24+24*"
"Motorcycle","LML","CRD100, Freedom Topper, Freedom Prima110, Freedom Prima125, Graptor150, Beamer150, Adreno FX, Energy FX, Freedom DX","","LGBTX 2.5L","2.5","MoRide","24+24*"
"Motorcycle","LML","Graptor150, Freedom125","","LGZ HH TX5","5","MoRide","24+24*"
"Motorcycle","LML","Graptor150, Freedom126","","LGBTX 5L","5","MoRide","24+24*"
"Motorcycle","LML","Beamer150","","LGBTX 9L","9","MoRide","24+24*"
"Scooter","LML","Supremo","","LGBTX 2.5L","2.5","MoRide","24+24*"
"Scooter","LML","Select II","","LGZ HH TX5","5","MoRide","24+24*"
"Scooter","LML","Select II","","LGBTX 5L","5","MoRide","24+24*"
"Scooter","LML","Select 4 Stroke, NVSPL, Sensation, Star Express, Supremo, VR135, Stella 4 Stk, Select 4STK, Scooter NV 4STK, Scooter NV LS 4Stk, Star Deluxe 4STK, Star Deluxe 125 ESAOM Euro-III, Scooter CVT-4stk","","LGBTX 9L","9","MoRide","24+24*"
"Motorcycle","ROYAL ENFIELD","Bullet350, Bullet500, Bullet Std., Bullet Delux, Lightning, MachismoA350, Maschismo500, Electra, Electra5S, Thunderbird, Standard500","","LGZ HH TX5","5","MoRide","24+24*"
"Motorcycle","ROYAL ENFIELD","Bullet350, Bullet500, Bullet Std., Bullet Delux, Lightning, MachismoA350, Maschismo500, Electra, Electra5S, Thunderbird, Standard501","","LGBTX 5L","5","MoRide","24+24*"
"Motorcycle","SUZUKI","Heat, Zeus125X, Zeus125XU, Hayate","","LGBTX 2.5L","2.5","MoRide","24+24*"
"Motorcycle","SUZUKI","Gixxer,","","LGZ HH TZ5","4","MoRide","24+24*"
"Motorcycle","SUZUKI","Zeus, Slingshot, Hayate 110","","LGZ HH TX5","5","MoRide","24+24*"
"Motorcycle","SUZUKI","Zeus, Slingshot, Hayate 111","","LGBTX 5L","5","MoRide","24+24*"
"Motorcycle","SUZUKI","GS150 R (Old Model), GS150 R (New Model)","","LGBTX 7L","7","MoRide","24+24*"
"Scooter","SUZUKI","Lets","","LGZ HH TZ5","4","MoRide","24+24*"
"Scooter","SUZUKI","Access125, Swish 125","","LGZ HH TX5","5","MoRide","24+24*"
"Scooter","SUZUKI","Access125, Swish 126","","LGBTX 5L","5","MoRide","24+24*"
"Motorcycle","TVS","Star Std., Star City, Fiero, Star Sports, Victor
EDGE, Victor GLX125, Fiero F2, Fx, Max100R,
Shaolin, Victor GX, Centra, Samurai, AX100, Shogun, Victor","","LGBTX 2.5L","2.5","MoRide","24+24*"
"Motorcycle","TVS","Star City, Victor EDGE, Victor GLX125, Fiero, Fiero F2, Fiero FX, Flame, Jive, Phoenix 125, MAX 4R 125, Apache","","LGZ HH TX5","5","MoRide","24+24*"
"Motorcycle","TVS","Star City, Victor EDGE, Victor GLX125, Fiero, Fiero F2, Fiero FX, Flame, Jive, Phoenix 125, MAX 4R 125, Apache","","LGBTX 5L","5","MoRide","24+24*"
"Motorcycle","TVS","ApacheRTR160, ApacheFI160, Apache Hyper Edge, ApacheRTR180, Apache 150, MAX 4R 150","","LGBTX 9L","9","MoRide","24+24*"
"Scooter","TVS","Wego","","LGZ HH TZ5","4","MoRide","24+24*"
"Scooter","TVS","Scooty Pep+, Scooty Pep Dlx., Scooty, Scooty Teenz, Spectra, Wego, Scooty Streak, Jupiter","","LGZ HH TX5","5","MoRide","24+24*"
"Scooter","TVS","Scooty Pep+, Scooty Pep Dlx., Scooty, Scooty Teenz, Spectra, Wego, Scooty Streak, Jupiter","","LGBTX 5L","5","MoRide","24+24*"
"Motorcycle","YAMAHA","Crux, Crux R, YBX125, RXZ, RXG, Alba106, RZX135, RX135, LiberoG5, Fazer LX, Gladiator Std., Rajdoot Std., Enticer, ACE, Gladiator DX, GladiatorSS125, YD125","","LGBTX 2.5L","2.5","MoRide","24+24*"
"Motorcycle","YAMAHA","YZF R15, R15","","LGZ HH TZ5","4","MoRide","24+24*"
"Motorcycle","YAMAHA","Fazer DLX, Gladiator DLX, FZ16, FZS, Enticer, Alba106, RZX, YBR110, YBR125, Gladiator SS125, SZ, SZX, SZ-R, FZ-S, Fazer, YZFR15,
Fazer 150","","LGZ HH TX5","5","MoRide","24+24*"
"Motorcycle","YAMAHA","Fazer DLX, Gladiator DLX, FZ16, FZS, Enticer, Alba106, RZX, YBR110, YBR125, Gladiator SS125, SZ, SZX, SZ-R, FZ-S, Fazer, YZFR15,
Fazer 150","","LGBTX 5L","5","MoRide","24+24*"
"Motorcycle","YAMAHA","Enticer (New)","","LGBTX 7L","5","MoRide","24+24*"
"Motorcycle","YAMAHA","Enticer (Old)","","LGBTX 9L","5","MoRide","24+24*"
"Scooter","YAMAHA","Ray, Ray Z, Alpha","","LGZ HH TX5","5","MoRide","24+24*"
"Scooter","YAMAHA","Ray, Ray Z, Alpha","","LGBTX 5L","5","MoRide","24+24*"
"Scooter","PIAGGIO","Vespa","","LGZ HH TX5","5","MoRide","24+24*"
